{
  "records": [
    {
      "Name": "Mehul",
      "Age": "18"
    },
    {
      "Name": "Jai",
      "Age": "16"
    },
    {
      "Name": "Alex",
      "Age": "27"
    },
    {
      "Name": "Anonymous",
      "Age": "???"
    }
  ]
}