{
  "records": [
    {
      "Name": "Mehul",
      "Age": "18",
      "FavColor": "orange"
    },
    {
      "Name": "Jai",
      "Age": "16",
      "FavColor": "Blue"
    },
    {
      "Name": "Alex",
      "Age": "27",
      "FavColor": "black"
    },
    {
      "Name": "Anonymous",
      "Age": "???",
      "FavColor": "red"
    }
  ]
}